<?xml version="1.0" encoding="UTF-8" standalone="no"?>
<svg viewBox="0 0 50 50"
 xmlns="http://www.w3.org/2000/svg" xmlns:xlink="http://www.w3.org/1999/xlink" version="1.2" baseProfile="tiny">
<title>Qt SVG Document</title>
<desc>Generated with Qt</desc>
<defs>
</defs>
<g fill="none" stroke="black" stroke-width="1" fill-rule="evenodd" stroke-linecap="square" stroke-linejoin="bevel" >

<g fill="#7a9036" fill-opacity="1" stroke="none" transform="matrix(2.08307,0,0,2.63158,-2.8059,-768.947)"
font-family="Source Sans Pro" font-size="10" font-weight="400" font-style="normal" 
>
<rect x="1.347" y="292.2" width="24" height="18"/>
</g>

<g fill="#020001" fill-opacity="1" stroke="none" transform="matrix(2.08307,0,0,2.63158,-2.8059,-768.947)"
font-family="Source Sans Pro" font-size="10" font-weight="400" font-style="normal" 
>
<rect x="1.347" y="292.2" width="24" height="1"/>
</g>

<g fill="#596928" fill-opacity="1" stroke="none" transform="matrix(2.08307,0,0,2.63158,-2.8059,-768.947)"
font-family="Source Sans Pro" font-size="10" font-weight="400" font-style="normal" 
>
<rect x="3.35" y="293.2" width="20" height="1"/>
</g>

<g fill="#938570" fill-opacity="1" stroke="none" transform="matrix(0,2.63158,-2.08307,0,-2.8059,-768.947)"
font-family="Source Sans Pro" font-size="10" font-weight="400" font-style="normal" 
>
<rect x="293.2" y="-25.35" width="17" height="1"/>
</g>

<g fill="#938570" fill-opacity="1" stroke="none" transform="matrix(0,2.63158,-2.08307,0,-2.8059,-768.947)"
font-family="Source Sans Pro" font-size="10" font-weight="400" font-style="normal" 
>
<rect x="293.2" y="-2.347" width="17" height="1"/>
</g>

<g fill="#000000" fill-opacity="1" stroke="none" transform="matrix(0,2.63158,-2.08307,0,-2.8059,-768.947)"
font-family="Source Sans Pro" font-size="10" font-weight="400" font-style="normal" 
>
<rect x="293.2" y="-24.35" width="15" height="1"/>
</g>

<g fill="#000000" fill-opacity="1" stroke="none" transform="matrix(0,2.63158,-2.08307,0,-2.8059,-768.947)"
font-family="Source Sans Pro" font-size="10" font-weight="400" font-style="normal" 
>
<rect x="293.2" y="-3.35" width="15" height="1"/>
</g>

<g fill="#938570" fill-opacity="1" stroke="none" transform="matrix(-2.08307,0,0,-2.63158,-2.8059,-768.947)"
font-family="Source Sans Pro" font-size="10" font-weight="400" font-style="normal" 
>
<rect x="-24.35" y="-310.2" width="22" height="1"/>
</g>

<g fill="#000000" fill-opacity="1" stroke="none" transform="matrix(-2.08307,0,0,-2.63158,-2.8059,-768.947)"
font-family="Source Sans Pro" font-size="10" font-weight="400" font-style="normal" 
>
<rect x="-24.36" y="-309.2" width="22" height="1"/>
</g>

<g fill="#2b2b2b" fill-opacity="1" stroke="none" transform="matrix(2.08307,0,0,2.63158,-97.2003,-749.052)"
font-family="Source Sans Pro" font-size="10" font-weight="400" font-style="normal" 
>
<rect x="46.665" y="302.64" width="24" height="1"/>
</g>

<g fill="#d6d6d6" fill-opacity="1" stroke="none" transform="matrix(2.08307,0,0,2.63158,-97.2003,-749.052)"
font-family="Source Sans Pro" font-size="10" font-weight="400" font-style="normal" 
>
<path vector-effect="none" fill-rule="nonzero" d="M57.662,289.64 L57.662,292.64 L58.662,292.64 L58.662,290.64 L61.662,290.64 L61.662,293.64 L59.662,293.64 L59.662,294.64 L62.662,294.64 L62.662,289.64 L57.662,289.64 M59.662,294.64 L58.662,294.64 L58.662,296.64 L55.662,296.64 L55.662,293.64 L57.662,293.64 L57.662,292.64 L54.662,292.64 L54.662,297.64 L59.662,297.64 L59.662,294.64"/>
</g>

<g fill="none" stroke="#000000" stroke-opacity="1" stroke-width="1" stroke-linecap="square" stroke-linejoin="bevel" transform="matrix(1,0,0,1,0,0)"
font-family="Source Sans Pro" font-size="10" font-weight="400" font-style="normal" 
>
</g>
</g>
</svg>
