<?xml version="1.0" encoding="UTF-8" standalone="no"?>
<svg viewBox="0 0 50 50"
 xmlns="http://www.w3.org/2000/svg" xmlns:xlink="http://www.w3.org/1999/xlink" version="1.2" baseProfile="tiny">
<title>Qt SVG Document</title>
<desc>Generated with Qt</desc>
<defs>
</defs>
<g fill="none" stroke="black" stroke-width="1" fill-rule="evenodd" stroke-linecap="square" stroke-linejoin="bevel" >

<g fill="#bbb546" fill-opacity="1" stroke="none" transform="matrix(2.08307,0,0,2.63158,-2.8059,-768.947)"
font-family="Source Sans Pro" font-size="10" font-weight="400" font-style="normal" 
>
<rect x="1.347" y="292.2" width="24" height="18"/>
</g>

<g fill="#000000" fill-opacity="1" stroke="none" transform="matrix(2.08307,0,0,2.63158,3.43291,-745.368)"
font-family="Source Sans Pro" font-size="10" font-weight="400" font-style="normal" 
>
<rect x="-1.648" y="283.24" width="24" height="1"/>
</g>

<g fill="#847865" fill-opacity="1" stroke="none" transform="matrix(2.08307,0,0,2.63158,3.43291,-745.368)"
font-family="Source Sans Pro" font-size="10" font-weight="400" font-style="normal" 
>
<rect x="0.354999" y="284.24" width="20" height="1"/>
</g>

<g fill="#938570" fill-opacity="1" stroke="none" transform="matrix(0,2.63158,-2.08307,0,3.43291,-745.368)"
font-family="Source Sans Pro" font-size="10" font-weight="400" font-style="normal" 
>
<rect x="284.24" y="-22.355" width="17" height="1"/>
</g>

<g fill="#938570" fill-opacity="1" stroke="none" transform="matrix(0,2.63158,-2.08307,0,3.43291,-745.368)"
font-family="Source Sans Pro" font-size="10" font-weight="400" font-style="normal" 
>
<rect x="284.24" y="0.648002" width="17" height="1"/>
</g>

<g fill="#000000" fill-opacity="1" stroke="none" transform="matrix(0,2.63158,-2.08307,0,3.43291,-745.368)"
font-family="Source Sans Pro" font-size="10" font-weight="400" font-style="normal" 
>
<rect x="284.24" y="-21.355" width="15" height="1"/>
</g>

<g fill="#000000" fill-opacity="1" stroke="none" transform="matrix(0,2.63158,-2.08307,0,3.43291,-745.368)"
font-family="Source Sans Pro" font-size="10" font-weight="400" font-style="normal" 
>
<rect x="284.24" y="-0.354998" width="15" height="1"/>
</g>

<g fill="#938570" fill-opacity="1" stroke="none" transform="matrix(-2.08307,0,0,-2.63158,3.43291,-745.368)"
font-family="Source Sans Pro" font-size="10" font-weight="400" font-style="normal" 
>
<rect x="-21.355" y="-301.24" width="22" height="1"/>
</g>

<g fill="#000000" fill-opacity="1" stroke="none" transform="matrix(-2.08307,0,0,-2.63158,3.43291,-745.368)"
font-family="Source Sans Pro" font-size="10" font-weight="400" font-style="normal" 
>
<rect x="-21.365" y="-300.24" width="22" height="1"/>
</g>

<g fill="#000000" fill-opacity="1" stroke="none" transform="matrix(2.08307,0,0,2.63158,3.43291,-745.368)"
font-family="Source Sans Pro" font-size="10" font-weight="400" font-style="normal" 
>
<rect x="7.365" y="295.24" width="8" height="2"/>
</g>

<g fill="#ffffff" fill-opacity="1" stroke="none" transform="matrix(2.08307,0,0,2.63158,3.43291,-745.368)"
font-family="Source Sans Pro" font-size="10" font-weight="400" font-style="normal" 
>
<rect x="6.352" y="294.24" width="8" height="2"/>
</g>

<g fill="#d0c94e" fill-opacity="1" stroke="none" transform="matrix(2.08307,0,0,2.63158,3.43291,-745.368)"
font-family="Source Sans Pro" font-size="10" font-weight="400" font-style="normal" 
>
<rect x="0.365" y="285.24" width="20" height="1"/>
</g>

<g fill="#d0c94e" fill-opacity="1" stroke="none" transform="matrix(0,2.63158,-2.08307,0,3.43291,-745.368)"
font-family="Source Sans Pro" font-size="10" font-weight="400" font-style="normal" 
>
<rect x="286.24" y="-1.365" width="13" height="1"/>
</g>

<g fill="#969022" fill-opacity="1" stroke="none" transform="matrix(2.08307,0,0,2.63158,3.43291,-745.368)"
font-family="Source Sans Pro" font-size="10" font-weight="400" font-style="normal" 
>
<rect x="1.365" y="298.24" width="19" height="1"/>
</g>

<g fill="#969022" fill-opacity="1" stroke="none" transform="matrix(0,2.63158,-2.08307,0,3.43291,-745.368)"
font-family="Source Sans Pro" font-size="10" font-weight="400" font-style="normal" 
>
<rect x="286.24" y="-20.365" width="12" height="1"/>
</g>

<g fill="#2b2b2b" fill-opacity="1" stroke="none" transform="matrix(2.08307,0,0,2.63158,3.43291,-745.368)"
font-family="Source Sans Pro" font-size="10" font-weight="400" font-style="normal" 
>
<rect x="-1.645" y="301.24" width="24" height="1"/>
</g>

<g fill="none" stroke="#000000" stroke-opacity="1" stroke-width="1" stroke-linecap="square" stroke-linejoin="bevel" transform="matrix(1,0,0,1,0,0)"
font-family="Source Sans Pro" font-size="10" font-weight="400" font-style="normal" 
>
</g>
</g>
</svg>
