<?xml version="1.0" encoding="UTF-8" standalone="no"?>
<svg viewBox="0 0 50 50"
 xmlns="http://www.w3.org/2000/svg" xmlns:xlink="http://www.w3.org/1999/xlink"  version="1.2" baseProfile="tiny">
<title>Qt SVG Document</title>
<desc>Generated with Qt</desc>
<defs>
</defs>
<g fill="none" stroke="black" stroke-width="1" fill-rule="evenodd" stroke-linecap="square" stroke-linejoin="bevel" >

<g fill="#8a2224" fill-opacity="1" stroke="none" transform="matrix(1.38881,0,0,2.77778,-13.5409,-811.667)"
font-family="Noto Sans" font-size="10" font-weight="400" font-style="normal" 
>
<rect x="9.752" y="292.2" width="36" height="18"/>
</g>

<g fill="#000000" fill-opacity="1" stroke="none" transform="matrix(1.38881,0,0,2.77778,-13.5409,-811.667)"
font-family="Noto Sans" font-size="10" font-weight="400" font-style="normal" 
>
<rect x="9.752" y="292.2" width="36" height="1"/>
</g>

<g fill="#000000" fill-opacity="1" stroke="none" transform="matrix(1.38881,0,0,2.77778,-13.5409,-811.667)"
font-family="Noto Sans" font-size="10" font-weight="400" font-style="normal" 
>
<rect x="11.76" y="293.2" width="32" height="1"/>
</g>

<g fill="#948b80" fill-opacity="1" stroke="none" transform="matrix(0,2.77778,-1.38881,0,-13.5409,-811.667)"
font-family="Noto Sans" font-size="10" font-weight="400" font-style="normal" 
opacity="0.952941" >
<rect x="293.2" y="-45.75" width="17" height="1"/>
</g>

<g fill="#948b80" fill-opacity="1" stroke="none" transform="matrix(0,2.77778,-1.38881,0,-13.5409,-811.667)"
font-family="Noto Sans" font-size="10" font-weight="400" font-style="normal" 
opacity="0.952941" >
<rect x="293.2" y="-10.75" width="17" height="1"/>
</g>

<g fill="#000000" fill-opacity="1" stroke="none" transform="matrix(0,2.77778,-1.38881,0,-13.5409,-811.667)"
font-family="Noto Sans" font-size="10" font-weight="400" font-style="normal" 
>
<rect x="293.2" y="-44.75" width="15" height="1"/>
</g>

<g fill="#000000" fill-opacity="1" stroke="none" transform="matrix(0,2.77778,-1.38881,0,-13.5409,-811.667)"
font-family="Noto Sans" font-size="10" font-weight="400" font-style="normal" 
>
<rect x="293.2" y="-11.76" width="15" height="1"/>
</g>

<g fill="#928c82" fill-opacity="1" stroke="none" transform="matrix(-1.38881,0,0,-2.77778,-13.5409,-811.667)"
font-family="Noto Sans" font-size="10" font-weight="400" font-style="normal" 
opacity="0.924" >
<rect x="-44.73" y="-310.2" width="33.99" height="1"/>
</g>

<g fill="#000000" fill-opacity="1" stroke="none" transform="matrix(-1.38881,0,0,-2.77778,-13.5409,-811.667)"
font-family="Noto Sans" font-size="10" font-weight="400" font-style="normal" 
>
<rect x="-44.75" y="-309.2" width="33.99" height="1"/>
</g>

<g fill="#eaa2a3" fill-opacity="1" stroke="none" transform="matrix(1.38881,0,0,2.77778,71.2072,-710.389)"
font-family="Noto Sans" font-size="10" font-weight="400" font-style="normal" 
>
<path vector-effect="none" fill-rule="evenodd" d="M-36.282,261.74 L-36.282,263.279 L-33.8269,265.746 L-36.282,268.205 L-36.282,269.74 L-34.741,269.74 L-32.282,267.279 L-29.825,269.74 L-28.282,269.74 L-28.282,268.209 L-30.7508,265.746 L-28.282,263.275 L-28.282,261.74 L-29.825,261.74 L-32.282,264.201 L-34.741,261.74 L-36.282,261.74"/>
</g>

<g fill="none" stroke="#000000" stroke-opacity="1" stroke-width="1" stroke-linecap="square" stroke-linejoin="bevel" transform="matrix(1,0,0,1,0,0)"
font-family="Noto Sans" font-size="10" font-weight="400" font-style="normal" 
>
</g>
</g>
</svg>
