<?xml version="1.0" encoding="UTF-8" standalone="no"?>
<svg viewBox="0 0 50 50"
 xmlns="http://www.w3.org/2000/svg" xmlns:xlink="http://www.w3.org/1999/xlink"  version="1.2" baseProfile="tiny">
<title>Qt SVG Document</title>
<desc>Generated with Qt</desc>
<defs>
</defs>
<g fill="none" stroke="black" stroke-width="1" fill-rule="evenodd" stroke-linecap="square" stroke-linejoin="bevel" >

<g fill="#424242" fill-opacity="1" stroke="none" transform="matrix(2.08307,0,0,2.77778,-2.8059,-811.667)"
font-family="Noto Sans" font-size="10" font-weight="400" font-style="normal" 
>
<rect x="1.347" y="292.2" width="24" height="18"/>
</g>

<g fill="#000000" fill-opacity="1" stroke="none" transform="matrix(2.08307,0,0,2.77778,-2.8059,-811.667)"
font-family="Noto Sans" font-size="10" font-weight="400" font-style="normal" 
>
<rect x="1.347" y="292.2" width="24" height="1"/>
</g>

<g fill="#5b5b5b" fill-opacity="1" stroke="none" transform="matrix(2.08307,0,0,2.77778,-2.8059,-811.667)"
font-family="Noto Sans" font-size="10" font-weight="400" font-style="normal" 
opacity="0.964706" >
<rect x="3.35" y="293.2" width="20" height="1"/>
</g>

<g fill="#5b5b5b" fill-opacity="1" stroke="none" transform="matrix(0,2.77778,-2.08307,0,-2.8059,-811.667)"
font-family="Noto Sans" font-size="10" font-weight="400" font-style="normal" 
opacity="0.964706" >
<rect x="293.2" y="-25.35" width="17" height="1"/>
</g>

<g fill="#5b5b5b" fill-opacity="1" stroke="none" transform="matrix(0,2.77778,-2.08307,0,-2.8059,-811.667)"
font-family="Noto Sans" font-size="10" font-weight="400" font-style="normal" 
opacity="0.964706" >
<rect x="293.2" y="-2.347" width="17" height="1"/>
</g>

<g fill="#202020" fill-opacity="1" stroke="none" transform="matrix(0,2.77778,-2.08307,0,-2.8059,-811.667)"
font-family="Noto Sans" font-size="10" font-weight="400" font-style="normal" 
>
<rect x="293.2" y="-24.35" width="15" height="1"/>
</g>

<g fill="#202020" fill-opacity="1" stroke="none" transform="matrix(0,2.77778,-2.08307,0,-2.8059,-811.667)"
font-family="Noto Sans" font-size="10" font-weight="400" font-style="normal" 
>
<rect x="293.2" y="-3.35" width="15" height="1"/>
</g>

<g fill="#5b5b5b" fill-opacity="1" stroke="none" transform="matrix(-2.08307,0,0,-2.77778,-2.8059,-811.667)"
font-family="Noto Sans" font-size="10" font-weight="400" font-style="normal" 
opacity="0.964706" >
<rect x="-24.35" y="-310.2" width="22" height="1"/>
</g>

<g fill="#202020" fill-opacity="1" stroke="none" transform="matrix(-2.08307,0,0,-2.77778,-2.8059,-811.667)"
font-family="Noto Sans" font-size="10" font-weight="400" font-style="normal" 
>
<rect x="-24.36" y="-309.2" width="22" height="1"/>
</g>

<g fill="#c6c6c4" fill-opacity="1" stroke="none" transform="matrix(2.08307,0,0,2.77778,1.37691,-803.444)"
font-family="Noto Sans" font-size="10" font-weight="400" font-style="normal" 
>
<rect x="7.339" y="300.24" width="8" height="2"/>
</g>

<g fill="none" stroke="#000000" stroke-opacity="1" stroke-width="1" stroke-linecap="square" stroke-linejoin="bevel" transform="matrix(1,0,0,1,0,0)"
font-family="Noto Sans" font-size="10" font-weight="400" font-style="normal" 
>
</g>
</g>
</svg>
